{
    "data": {
      "profile": {
        "first_name": "Satakshi ",
        "last_name": "Dixit",
        "date_of_birth": "2009-01-09T18:30:00+00:00",
        "gender": "female",
        "email": "nehagoyal2483@gmail.com",
        "student": {
          "avatar": {
            "id": "3",
            "name": "Avatar 3",
            "image_url": "https://d39460vivz6red.cloudfront.net/avatars/avatar-3.svg",
            "thumbnail": "https://d39460vivz6red.cloudfront.net/avatars/avatar-thumb-3.svg",
            "__typename": "Avatar"
          },
          "__typename": "Student"
        },
        "__typename": "User"
      },
      "courses": [
        {
          "slug": "SC_CBSE_2",
          "subject": {
            "id": "3",
            "name": "Sc  ience",
            "__typename": "Subject"
          },
          "__typename": "Course"
        },
        {
          "slug": "BDA_SALES_1",
          "subject": {
            "id": "1",
            "name": "Maths",
            "__typename": "Subject"
          },
          "__typename": "Course"
        },
        {
          "slug": "M_CBSE_7",
          "subject": {
            "id": "1",
            "name": "Maths",
            "__typename": "Subject"
          },
          "__typename": "Course"
        },
        {
          "slug": "SC_CBSE_8",
          "subject": {
            "id": "2",
            "name": "Science",
            "__typename": "Subject"
          },
          "__typename": "Course"
        },
        {
          "slug": "ENG_FEL_2",
          "subject": {
            "id": "3",
            "name": "English",
            "__typename": "Subject"
          },
          "__typename": "Course"
        },
        {
          "slug": "M_CBSE_8",
          "subject": {
            "id": "1",
            "name": "Maths",
            "__typename": "Subject"
          },
          "__typename": "Course"
        },
        {
          "slug": "SC_CBSE_9",
          "subject": {
            "id": "2",
            "name": "Science",
            "__typename": "Subject"
          },
          "__typename": "Course"
        }
      ],
      "all_courses": {
        "completed_courses": [
          {
            "title": "Science CBSE Grade 7",
            "grade": {
              "id": "7",
              "__typename": "Grade"
            },
            "slug": "SC_CBSE_7",
            "subject": {
              "id": "2",
              "name": "Science",
              "__typename": "Subject"
            },
            "__typename": "Course"
          },
          {
            "title": "Math CBSE Grade 7",
            "grade": {
              "id": "7",
              "__typename": "Grade"
            },
            "slug": "M_CBSE_7",
            "subject": {
              "id": "1",
              "name": "Maths",
              "__typename": "Subject"
            },
            "__typename": "Course"
          },
          {
            "title": "Science CBSE Grade 8",
            "grade": {
              "id": "8",
              "__typename": "Grade"
            },
            "slug": "SC_CBSE_8",
            "subject": {
              "id": "2",
              "name": "Science",
              "__typename": "Subject"
            },
            "__typename": "Course"
          },
          {
            "title": "English FEL 2",
            "grade": {
              "id": "5",
              "__typename": "Grade"
            },
            "slug": "ENG_FEL_2",
            "subject": {
              "id": "3",
              "name": "English",
              "__typename": "Subject"
            },
            "__typename": "Course"
          }
        ],
        "current_courses": [
          {
            "title": "BDA Sales Training",
            "grade": {
              "id": "8",
              "__typename": "Grade"
            },
            "slug": "BDA_SALES_1",
            "subject": {
              "id": "1",
              "name": "Maths",
              "__typename": "Subject"
            },
            "__typename": "Course"
          },
          {
            "title": "Science CBSE Grade 8",
            "grade": {
              "id": "8",
              "__typename": "Grade"
            },
            "slug": "SC_CBSE_8",
            "subject": {
              "id": "2",
              "name": "Science",
              "__typename": "Subject"
            },
            "__typename": "Course"
          },
          {
            "title": "Math CBSE Grade 8",
            "grade": {
              "id": "8",
              "__typename": "Grade"
            },
            "slug": "M_CBSE_8",
            "subject": {
              "id": "1",
              "name": "Maths",
              "__typename": "Subject"
            },
            "__typename": "Course"
          },
          {
            "title": "Science CBSE Grade 9",
            "grade": {
              "id": "9",
              "__typename": "Grade"
            },
            "slug": "SC_CBSE_9",
            "subject": {
              "id": "2",
              "name": "Science",
              "__typename": "Subject"
            },
            "__typename": "Course"
          }
        ],
        "future_courses": [],
        "__typename": "AllCourses"
      },
      "all_subjects": [
        {
          "id": "1",
          "name": "Maths",
          "__typename": "Subject"
        },
        {
          "id": "2",
          "name": "Science",
          "__typename": "Subject"
        },
        {
          "id": "3",
          "name": "English",
          "__typename": "Subject"
        },
        {
          "id": "4",
          "name": "Sales",
          "__typename": "Subject"
        }
      ],
      "rewards": {
        "total_points_earned": 78,
        "total_points_redeemed": 0,
        "__typename": "EarnedRewardPoints"
      },
      "current_goal": {
        "id": "6",
        "points": 5000,
        "name": "Amazon Gift Voucher",
        "level_type": 3,
        "expires_in_ms": "1375098207",
        "__typename": "CurrentGoal"
      },
      "feedbacks": [
        {
          "title": "Hope you enjoyed class today!",
          "subtitle": "Tell us what you thought",
          "id": "cd1e632a-ba28-45be-9aa1-c70f9dd7600f",
          "is_commentable": false,
          "feedback_type": "class_completion",
          "questions": [
            {
              "options": [
                {
                  "others": false,
                  "choices": [],
                  "ratings": [
                    2,
                    1,
                    3
                  ],
                  "is_multiple_choice": false
                }
              ],
              "id": "663f5c85-216e-45ba-9eb2-2895c61a2d62",
              "rating_type": "emoji",
              "subtitle": "",
              "title": "How did you feel about this class?",
              "__typename": "FeedbackQuestion"
            },
            {
              "options": [
                {
                  "others": false,
                  "choices": [],
                  "ratings": [
                    1
                  ],
                  "is_multiple_choice": false
                },
                {
                  "others": true,
                  "choices": [
                    {
                      "tag": "Camera_issue",
                      "title": "Camera had issues"
                    },
                    {
                      "tag": "Sound_issue",
                      "title": "Sound had issues"
                    },
                    {
                      "tag": "Video_issue",
                      "title": "Video did not load"
                    }
                  ],
                  "ratings": [
                    2
                  ],
                  "is_multiple_choice": true
                }
              ],
              "id": "91e64abf-e68c-4f27-bc20-d7fa35169923",
              "rating_type": "yes_no",
              "subtitle": "",
              "title": "Did you face technical issues?",
              "__typename": "FeedbackQuestion"
            },
            {
              "options": [
                {
                  "others": false,
                  "choices": [],
                  "ratings": [
                    5
                  ],
                  "is_multiple_choice": false
                },
                {
                  "others": true,
                  "choices": [
                    {
                      "tag": "Too_fast",
                      "title": "Tutor should speak slower"
                    },
                    {
                      "tag": "Doubtsolving_issue",
                      "title": "Tutor should be stronger at solving doubts"
                    },
                    {
                      "tag": "Participation_issue",
                      "title": "I wanted more opportunity to participate"
                    },
                    {
                      "tag": "Not_interesting",
                      "title": "Should have been more interesting"
                    },
                    {
                      "tag": "Explanation_issue",
                      "title": "Should have explained things better"
                    }
                  ],
                  "ratings": [
                    4,
                    3,
                    2,
                    1
                  ],
                  "is_multiple_choice": true
                }
              ],
              "id": "e6205e6a-b9e7-48b9-a2a9-c15684033efb",
              "rating_type": "star",
              "subtitle": "",
              "title": "How was your tutor?",
              "__typename": "FeedbackQuestion"
            },
            {
              "options": [
                {
                  "others": false,
                  "choices": [],
                  "ratings": [
                    3
                  ],
                  "is_multiple_choice": false
                },
                {
                  "others": true,
                  "choices": [],
                  "ratings": [
                    2,
                    1
                  ],
                  "is_multiple_choice": false
                }
              ],
              "id": "c153311b-1d58-4e03-bdb9-b04ce03129cb",
              "rating_type": "emoji",
              "subtitle": "",
              "title": "How do you feel about attending your next class?",
              "__typename": "FeedbackQuestion"
            },
            {
              "options": [
                {
                  "others": false,
                  "choices": [],
                  "ratings": [],
                  "is_multiple_choice": false
                }
              ],
              "id": "2cb69098-b643-4ee7-81c1-843a5cda71ba",
              "rating_type": "generic",
              "subtitle": "",
              "title": "Any other comments/feedback?",
              "__typename": "FeedbackQuestion"
            }
          ],
          "__typename": "FeedbackQuestionnaire"
        },
        {
          "title": "Congrats on completing this chapter. We hope you enjoyed it!",
          "subtitle": "Tell us what you thought",
          "id": "75b92b2f-0331-4439-919c-b8fec2bda70b",
          "is_commentable": false,
          "feedback_type": "chapter_completion",
          "questions": [
            {
              "options": [
                {
                  "others": true,
                  "choices": [
                    {
                      "tag": "NO_LEARNING",
                      "title": "I could not learn much in this chapter"
                    },
                    {
                      "tag": "BAD_CONTENT",
                      "title": "The content in the classes was not good"
                    },
                    {
                      "tag": "BAD_TUTOR",
                      "title": "The tutor in this chapter was not effective"
                    },
                    {
                      "tag": "TECH_DIFFICULTIES",
                      "title": "I faced technical difficulties during this chapter"
                    },
                    {
                      "tag": "NOT_RELEVANT",
                      "title": "The curriculum in this chapter was not relevant to me"
                    },
                    {
                      "tag": "TOO_DIFFICULT",
                      "title": "It was too difficult for me to understand"
                    }
                  ],
                  "ratings": [
                    2,
                    1
                  ],
                  "is_multiple_choice": true
                },
                {
                  "others": false,
                  "choices": [],
                  "ratings": [
                    3
                  ],
                  "is_multiple_choice": false
                }
              ],
              "id": "fc4afb32-4b7d-4e7b-9eff-5ef6539965ec",
              "rating_type": "emoji",
              "subtitle": "",
              "title": "What was your overall feeling about the live classes in this chapter?",
              "__typename": "FeedbackQuestion"
            },
            {
              "options": [
                {
                  "others": true,
                  "choices": [
                    {
                      "tag": "TOO_QUICK",
                      "title": "Speaks too quickly"
                    },
                    {
                      "tag": "NO_SOLVE_DOUBTS",
                      "title": "Not able to solve my doubts"
                    },
                    {
                      "tag": "NO_CLASS_PARTICIPATION",
                      "title": "Did not give enough opportunity to participate in class"
                    },
                    {
                      "tag": "NO_EXPLANATION",
                      "title": "Was not good at explaining things"
                    },
                    {
                      "tag": "BORING",
                      "title": "Was boring"
                    }
                  ],
                  "ratings": [
                    2,
                    1
                  ],
                  "is_multiple_choice": true
                },
                {
                  "others": false,
                  "choices": [],
                  "ratings": [
                    3
                  ],
                  "is_multiple_choice": false
                }
              ],
              "id": "2b89d163-f0d6-49f2-8d42-7aa101250529",
              "rating_type": "emoji",
              "subtitle": "",
              "title": "What was your overall feeling about your tutor throughout this chapter?",
              "__typename": "FeedbackQuestion"
            },
            {
              "options": [
                {
                  "others": true,
                  "choices": [
                    {
                      "tag": "Not_Learn",
                      "title": "I did not learn much from this chapter"
                    },
                    {
                      "tag": "Not_Enjoy",
                      "title": "I did not enjoy this chapter"
                    },
                    {
                      "tag": "Content_Bad",
                      "title": "I did not find the content good"
                    },
                    {
                      "tag": "Tutor_Ineffective",
                      "title": "The tutor was not effective"
                    },
                    {
                      "tag": "Bored",
                      "title": "I got bored during this chapter"
                    },
                    {
                      "tag": "HW_Not_Complete",
                      "title": "I could not complete the Homework Challenges for this chapter"
                    },
                    {
                      "tag": "HW_Ineffective",
                      "title": "The Homework Challenges did not help my learning"
                    }
                  ],
                  "ratings": [
                    2,
                    1
                  ],
                  "is_multiple_choice": true
                },
                {
                  "others": false,
                  "choices": [],
                  "ratings": [
                    3
                  ],
                  "is_multiple_choice": false
                }
              ],
              "id": "5b5acf45-d44e-477d-854a-1996d8b6cc36",
              "rating_type": "emoji",
              "subtitle": "",
              "title": "How was your overall learning experience in this chapter?",
              "__typename": "FeedbackQuestion"
            }
          ],
          "__typename": "FeedbackQuestionnaire"
        },
        {
          "title": "Your opinions are valuable to us, and will be used to improve your Lido experience.",
          "subtitle": "Please let us know if you have any feedback or concerns.",
          "id": "c2712c90-f823-4606-90ee-0b7d2b910733",
          "is_commentable": true,
          "feedback_type": "general",
          "questions": [],
          "__typename": "FeedbackQuestionnaire"
        },
        {
          "title": "Rate this content!",
          "subtitle": "Tell us what you thought",
          "id": "26a7b02f-a229-4761-bd6a-f6d298447f40",
          "is_commentable": false,
          "feedback_type": "content_completion",
          "questions": [
            {
              "options": [
                {
                  "others": true,
                  "choices": [
                    {
                      "tag": "Understanding_Difficult",
                      "title": "It was difficult to understand"
                    },
                    {
                      "tag": "Already_Knew",
                      "title": "I already knew the material in it"
                    },
                    {
                      "tag": "Not_Useful",
                      "title": "It didn't contain helpful information"
                    },
                    {
                      "tag": "Slow",
                      "title": "It was boring or too slow"
                    },
                    {
                      "tag": "Not_Understand_Person",
                      "title": "I could not hear or understand the person talking"
                    }
                  ],
                  "ratings": [
                    3,
                    2,
                    1
                  ],
                  "is_multiple_choice": true
                },
                {
                  "others": false,
                  "choices": [],
                  "ratings": [
                    4,
                    5
                  ],
                  "is_multiple_choice": false
                }
              ],
              "id": "c964e2ea-2359-42fa-a8d6-829e2d1cc924",
              "rating_type": "star",
              "subtitle": "",
              "title": "What was your overall feeling about the content?",
              "__typename": "FeedbackQuestion"
            }
          ],
          "__typename": "FeedbackQuestionnaire"
        }
      ],
      "completed": [
        {
          "unit": {
            "slug": "ENG_FEL_2_U_1_1",
            "course_units": [
              {
                "course": {
                  "subject": {
                    "id": "3",
                    "name": "English",
                    "__typename": "Subject"
                  },
                  "__typename": "Course"
                },
                "__typename": "CourseUnit"
              }
            ],
            "content": [],
            "__typename": "Unit"
          },
          "__typename": "ClassCompleted"
        },
        {
          "unit": {
            "slug": "SC_CBSE_8_U_3_1",
            "course_units": [
              {
                "course": {
                  "subject": {
                    "id": "2",
                    "name": "Science",
                    "__typename": "Subject"
                  },
                  "__typename": "Course"
                },
                "__typename": "CourseUnit"
              }
            ],
            "content": [],
            "__typename": "Unit"
          },
          "__typename": "ClassCompleted"
        }
      ],
      "upcoming": [
        {
          "start_time": "2020-04-02T05:00:00+00:00",
          "end_time": "2020-04-02T06:00:00+00:00",
          "time_left": "462498190",
          "vc_id": null,
          "unit": {
            "slug": "ECSC_CBSE_9_U_1_3",
            "course_units": [
              {
                "course": {
                  "subject": {
                    "id": "2",
                    "name": "Science",
                    "__typename": "Subject"
                  },
                  "__typename": "Course"
                },
                "__typename": "CourseUnit"
              }
            ],
            "name": "Evolution",
            "chapter": {
              "name": "Lido Exploration Camp",
              "__typename": "Chapter"
            },
            "__typename": "Unit"
          },
          "teacher": {
            "first_name": "Aniket",
            "last_name": "Batabyal",
            "__typename": "User"
          },
          "__typename": "VirtualClass"
        },
        {
          "start_time": "2020-04-02T06:00:00+00:00",
          "end_time": "2020-04-02T07:00:00+00:00",
          "time_left": "466098187",
          "vc_id": null,
          "unit": {
            "slug": "ECSC_CBSE_9_U_1_3",
            "course_units": [
              {
                "course": {
                  "subject": {
                    "id": "2",
                    "name": "Science",
                    "__typename": "Subject"
                  },
                  "__typename": "Course"
                },
                "__typename": "CourseUnit"
              }
            ],
            "name": "Evolution",
            "chapter": {
              "name": "Lido Exploration Camp",
              "__typename": "Chapter"
            },
            "__typename": "Unit"
          },
          "teacher": {
            "first_name": "Aniket",
            "last_name": "Batabyal",
            "__typename": "User"
          },
          "__typename": "VirtualClass"
        }
      ],
      "homeworkChallenges": [],
      "last_completed_chapter": [
        {
          "chapter": {
            "id": "04a1d69f-a20a-46bf-a3b3-0ec70131fc23",
            "thumbnail": "https://content-thumbnails.s3.amazonaws.com/chapters/Personal Correspondence/1582982345258.png",
            "title": "Personal Correspondence",
            "__typename": "Chapter"
          },
          "completed_at": "2020-03-02T14:45:00+00:00",
          "__typename": "ChapterCompleted"
        }
      ],
      "testHomeworks": []
    }
  }